%YAML 1.1
%TAG !u! tag:unity3d.com,2011:
--- !u!114 &11400000
MonoBehaviour:
  m_ObjectHideFlags: 0
  m_CorrespondingSourceObject: {fileID: 0}
  m_PrefabInternal: {fileID: 0}
  m_GameObject: {fileID: 0}
  m_Enabled: 1
  m_EditorHideFlags: 0
  m_Script: {fileID: 11500000, guid: 24e2352be0954e359a850a9d99215c6e, type: 3}
  m_Name: SnowTower3
  m_EditorClassIdentifier: 
  description: (Tier 3)Snow dmg enemy even more
  upgradeDescription: (Tier 3)Snow dmg enemy even more
  cost: 35
  sell: 20
  maxHealth: 10
  startingHealth: 10
  icon: {fileID: 21300000, guid: 8de2b0ca8a36944a9b9dd75dff42644f, type: 3}
