%YAML 1.1
%TAG !u! tag:unity3d.com,2011:
--- !u!114 &11400000
MonoBehaviour:
  m_ObjectHideFlags: 0
  m_CorrespondingSourceObject: {fileID: 0}
  m_PrefabInternal: {fileID: 0}
  m_GameObject: {fileID: 0}
  m_Enabled: 1
  m_EditorHideFlags: 0
  m_Script: {fileID: 11500000, guid: 24e2352be0954e359a850a9d99215c6e, type: 3}
  m_Name: MGTower3
  m_EditorClassIdentifier: 
  description: Tier 3
  upgradeDescription: 
  cost: 10
  sell: 8
  maxHealth: 5
  startingHealth: 5
  icon: {fileID: 21300000, guid: c80a90e92720c994f9156904bc9b2c1b, type: 3}
