%YAML 1.1
%TAG !u! tag:unity3d.com,2011:
--- !u!114 &11400000
MonoBehaviour:
  m_ObjectHideFlags: 0
  m_CorrespondingSourceObject: {fileID: 0}
  m_PrefabInternal: {fileID: 0}
  m_GameObject: {fileID: 0}
  m_Enabled: 1
  m_EditorHideFlags: 0
  m_Script: {fileID: 11500000, guid: a97a92b0d8cf4ef195477adef7115950, type: 3}
  m_Name: TowerLibrary
  m_EditorClassIdentifier: 
  configurations:
  - {fileID: 114821462932912190, guid: 0f26ff0a282736b4fab7fee10ab0e3d2, type: 2}
  - {fileID: 114126723238285906, guid: 7c0dba931e033498aa3fcfdf50adb263, type: 2}
